{
  "nr": 13,
  "input_difference": [ 0, 0, 0, 0, 0, 0, 0, 0, 0, 0, 0, 0, 0, 0, 0, 0, 0, 0, 0, 0, 5, 7, 0, 0, 0, 0, 0, 10, 0, 0, 0, 0 ],
  "output_difference": [ 0, 0, 0, 0, 0, 0, 0, 0, 0, 0, 0, 0, 0, 0, 0, 10, 0, 0, 0, 0, 0, 0, 5, 0, 0, 0, 0, 0, 0, 0, 10, 0 ],
  "log2_nb_keys": 4,
  "log2_nb_tries_by_key": 16
}